<?xml version="1.0" encoding="UTF-8" standalone="no"?>
<!-- Created with Inkscape (http://www.inkscape.org/) -->

<svg
   xmlns:dc="http://purl.org/dc/elements/1.1/"
   xmlns:cc="http://creativecommons.org/ns#"
   xmlns:rdf="http://www.w3.org/1999/02/22-rdf-syntax-ns#"
   xmlns:svg="http://www.w3.org/2000/svg"
   xmlns="http://www.w3.org/2000/svg"
   xmlns:sodipodi="http://sodipodi.sourceforge.net/DTD/sodipodi-0.dtd"
   xmlns:inkscape="http://www.inkscape.org/namespaces/inkscape"
   width="95"
   height="95"
   viewBox="0 0 25.135416 25.135417"
   version="1.1"
   id="svg305"
   inkscape:version="0.92.3 (2405546, 2018-03-11)"
   sodipodi:docname="bricolabs.svg">
  <defs
     id="defs299" />
  <sodipodi:namedview
     id="base"
     pagecolor="#ffffff"
     bordercolor="#666666"
     borderopacity="1.0"
     inkscape:pageopacity="0.0"
     inkscape:pageshadow="2"
     inkscape:zoom="2.8"
     inkscape:cx="15.070434"
     inkscape:cy="44.668225"
     inkscape:document-units="mm"
     inkscape:current-layer="layer1"
     showgrid="false"
     units="px"
     inkscape:window-width="1321"
     inkscape:window-height="713"
     inkscape:window-x="45"
     inkscape:window-y="27"
     inkscape:window-maximized="1" />
  <metadata
     id="metadata302">
    <rdf:RDF>
      <cc:Work
         rdf:about="">
        <dc:format>image/svg+xml</dc:format>
        <dc:type
           rdf:resource="http://purl.org/dc/dcmitype/StillImage" />
        <dc:title></dc:title>
      </cc:Work>
    </rdf:RDF>
  </metadata>
  <g
     inkscape:label="Layer 1"
     inkscape:groupmode="layer"
     id="layer1"
     transform="translate(0,-271.86457)">
    <path
       style="display:inline;fill:#1a1a1a;stroke-width:0.81638777"
       d="m 8.8131616,296.59727 c -0.3808553,-0.15189 -0.7131539,-0.65391 -0.7107066,-1.07378 0.0019,-0.30845 0.1886776,-0.72654 0.4211784,-0.94211 0.4737285,-0.43928 1.6489536,-0.36251 1.6489536,0.10772 0,0.0839 -0.04307,0.18823 -0.09587,0.232 -0.07816,0.0649 -0.1518451,0.0426 -0.3995321,-0.12155 -0.1669844,-0.11062 -0.3536605,-0.20112 -0.4148329,-0.20112 -0.2520033,0 -0.5139569,0.42343 -0.5139569,0.83078 0,0.0903 0.060044,0.28817 0.1334525,0.43978 0.1767732,0.36519 0.4091413,0.44707 0.8993083,0.3169 0.3846121,-0.10214 0.4543871,-0.0858 0.3526641,0.0826 -0.1838211,0.30435 -0.9214096,0.48797 -1.3206574,0.32877 z m 2.5973684,0.009 c -0.940903,-0.22813 -1.12036,-1.56584 -0.286721,-2.13705 0.344668,-0.23618 1.003688,-0.26369 1.308583,-0.0546 0.121349,0.0832 0.277491,0.22805 0.346991,0.32189 0.144409,0.19502 0.213122,0.65158 0.149265,0.99197 -0.04819,0.25681 -0.352882,0.64199 -0.613194,0.77513 -0.233251,0.1193 -0.644156,0.16594 -0.904924,0.10271 z m 0.615974,-0.34857 c 0.153486,-0.13202 0.181782,-0.21216 0.205287,-0.5813 0.04743,-0.74404 -0.118646,-1.14294 -0.475692,-1.14294 -0.248209,0 -0.402302,0.2058 -0.452016,0.60365 -0.06317,0.50667 0.0148,0.8763 0.230841,1.09234 0.220577,0.22058 0.265027,0.22313 0.49158,0.0281 z m 4.689411,0.24446 c -0.156123,-0.13137 -0.199178,-0.21921 -0.199178,-0.40638 0,-0.32456 0.120031,-0.47192 0.528005,-0.64821 0.614807,-0.26564 0.669293,-0.30119 0.690768,-0.4505 0.05189,-0.36106 -0.278753,-0.434 -0.617852,-0.13627 -0.24506,0.21517 -0.487938,0.23451 -0.524685,0.0418 -0.07494,-0.39257 0.921058,-0.72047 1.413995,-0.46557 0.288067,0.14897 0.347144,0.32137 0.351137,1.02465 0.0028,0.58007 0.01651,0.64741 0.149265,0.75484 0.204443,0.16555 0.18237,0.25029 -0.09541,0.36637 -0.222361,0.0929 -0.257638,0.0918 -0.454918,-0.0144 -0.201303,-0.10841 -0.22718,-0.10882 -0.440871,-0.007 -0.322566,0.15382 -0.568622,0.13557 -0.80026,-0.0594 z m 0.871914,-0.315 c 0.108942,-0.10893 0.158893,-0.23104 0.158893,-0.3884 0,-0.2059 -0.01783,-0.22953 -0.173852,-0.22953 -0.366968,0 -0.643188,0.54209 -0.360224,0.70693 0.164006,0.0955 0.19896,0.0873 0.375183,-0.089 z m 2.618872,0.41786 c -0.08897,-0.0285 -0.313052,-0.0547 -0.497888,-0.0582 -0.184827,-0.004 -0.353281,-0.0343 -0.374348,-0.0685 -0.02115,-0.0341 -0.05284,-0.68226 -0.07067,-1.44038 -0.02979,-1.27256 -0.04278,-1.39284 -0.169156,-1.56657 -0.12631,-0.1736 -0.128558,-0.19429 -0.02903,-0.26708 0.164233,-0.12008 0.622405,-0.17615 0.72742,-0.089 0.06374,0.0529 0.09011,0.23659 0.09087,0.63308 0.0019,0.70025 0.03415,0.76156 0.351592,0.65678 0.131157,-0.0433 0.33559,-0.0605 0.454274,-0.0382 0.985826,0.18495 1.071993,1.80542 0.117716,2.21371 -0.228384,0.0977 -0.355785,0.10291 -0.600883,0.0244 z m 0.316107,-0.29978 c 0.316751,-0.22184 0.41708,-0.77786 0.226363,-1.25447 -0.157375,-0.39331 -0.431565,-0.49875 -0.671939,-0.25837 -0.110393,0.11039 -0.129478,0.21579 -0.129478,0.71504 0,0.53541 0.01366,0.59919 0.158893,0.74447 0.187795,0.18779 0.218586,0.19173 0.416161,0.0533 z m 1.91729,0.32089 c -0.482142,-0.0601 -0.485519,-0.0631 -0.485519,-0.41078 0,-0.17733 0.0184,-0.32243 0.04069,-0.32243 0.02239,0 0.152737,0.10122 0.289671,0.22493 0.292857,0.26458 0.523755,0.33752 0.74678,0.2359 0.124555,-0.0568 0.156654,-0.11396 0.140889,-0.25098 -0.01745,-0.15107 -0.09561,-0.21364 -0.525577,-0.42054 -0.427334,-0.20564 -0.520454,-0.27976 -0.604705,-0.4814 -0.133547,-0.31961 -0.05245,-0.58759 0.238003,-0.78611 0.20171,-0.13791 0.274958,-0.15017 0.721994,-0.12088 0.273649,0.0179 0.528536,0.0517 0.56645,0.0751 0.03785,0.0234 0.06886,0.1574 0.06886,0.29772 0,0.28601 -0.103203,0.3335 -0.285971,0.13157 -0.247422,-0.27341 -0.748782,-0.33541 -0.837747,-0.10359 -0.06858,0.17881 0.02333,0.26476 0.542148,0.50707 0.373618,0.1745 0.541683,0.29245 0.612911,0.43018 0.134581,0.26027 0.123018,0.47078 -0.03709,0.67429 -0.255295,0.32456 -0.540583,0.40112 -1.1919,0.31984 z m -21.3530647,-0.0652 c -0.024283,-0.0242 0.036425,-0.12842 0.1348659,-0.23151 l 0.1789264,-0.18746 -0.014798,-1.20722 c -0.013564,-1.10578 -0.025991,-1.22244 -0.148601,-1.38828 -0.073703,-0.0996 -0.1162457,-0.20956 -0.094761,-0.2444 0.062225,-0.10075 1.7447346,-0.0798 1.9918622,0.0249 0.3038514,0.12859 0.4458599,0.3211 0.4835366,0.65549 0.031872,0.28204 0.020299,0.30821 -0.2488445,0.5642 -0.1560282,0.14844 -0.2481047,0.27979 -0.2059223,0.29384 0.6196071,0.20655 0.8378606,1.0049 0.3897906,1.42585 -0.295229,0.27733 -0.5715152,0.33873 -1.5244738,0.33873 -0.4936729,0 -0.9174124,-0.0197 -0.9416386,-0.044 z m 1.7064603,-0.31243 c 0.2579886,-0.1334 0.3651092,-0.51754 0.2327001,-0.83446 -0.1109433,-0.26551 -0.4140168,-0.44344 -0.7069977,-0.41506 l -0.2062733,0.0199 v 0.57176 c 0,0.49132 0.017548,0.58469 0.1256649,0.66355 0.1612358,0.11777 0.3192085,0.11614 0.554906,-0.006 z m -0.1008411,-1.62581 c 0.171945,-0.0659 0.3105197,-0.40282 0.2651692,-0.64457 -0.075031,-0.40013 -0.6510708,-0.65268 -0.8102387,-0.35524 -0.072659,0.13572 -0.091441,0.77156 -0.027793,0.93763 0.040219,0.1051 0.3682299,0.14069 0.5728148,0.0622 z m 1.6536579,1.89523 c 0,-0.0478 0.058241,-0.1398 0.1294875,-0.20425 0.1125369,-0.10183 0.1294686,-0.19938 0.1294686,-0.74576 0,-0.54382 -0.018592,-0.65229 -0.1382048,-0.80431 -0.1188827,-0.15113 -0.1254562,-0.18846 -0.047048,-0.2669 0.050273,-0.0503 0.2258989,-0.10966 0.3905115,-0.13222 0.2714677,-0.0373 0.3093246,-0.0256 0.4073105,0.12386 l 0.1080407,0.16487 0.2313437,-0.157 c 0.2872231,-0.19491 0.4359,-0.19837 0.5656531,-0.0132 0.1291271,0.18436 0.1269075,0.21841 -0.024093,0.36939 -0.1082494,0.10824 -0.1558575,0.11531 -0.3583555,0.0531 -0.3612865,-0.11088 -0.4554782,0.0234 -0.4554782,0.64969 0,0.42298 0.023714,0.5326 0.1548235,0.71648 0.2041295,0.2862 0.1288805,0.3309 -0.5594306,0.33217 -0.4047115,7e-4 -0.5340663,-0.0202 -0.5340663,-0.086 z m 2.2010418,0.0164 c 0,-0.0389 0.058242,-0.14479 0.1294686,-0.23531 0.1093402,-0.13899 0.1294781,-0.26262 0.1294781,-0.7945 0,-0.53188 -0.020204,-0.65552 -0.1294781,-0.7945 -0.071142,-0.0905 -0.1294686,-0.19277 -0.1294686,-0.22721 0,-0.075 0.310681,-0.14354 0.6505681,-0.14354 h 0.2459609 l 0.021153,0.90115 c 0.018876,0.80771 0.035856,0.92105 0.1632657,1.09321 0.078161,0.10562 0.1243274,0.20989 0.1024821,0.23172 -0.073324,0.0733 -1.1833537,0.0442 -1.1833537,-0.031 z m 6.9561978,0.002 c -0.02362,-0.0382 0.02552,-0.14252 0.109454,-0.23173 0.146002,-0.15534 0.153401,-0.20998 0.175066,-1.2922 0.01252,-0.6215 0.0066,-1.19647 -0.01442,-1.27769 -0.02039,-0.0813 -0.110678,-0.1871 -0.200658,-0.23526 -0.09002,-0.0481 -0.163588,-0.12632 -0.163588,-0.17372 0,-0.0664 0.161814,-0.0861 0.708287,-0.0861 0.389544,0 0.725201,0.0273 0.745889,0.0609 0.02077,0.0335 -0.01745,0.11361 -0.08442,0.17801 -0.260739,0.25012 -0.291444,0.407 -0.296557,1.5151 -0.0057,1.24067 0.01138,1.28861 0.45933,1.28861 0.327669,0 0.565729,-0.10614 0.79805,-0.35584 0.08897,-0.0957 0.212827,-0.20142 0.275138,-0.23501 0.102055,-0.055 0.113296,-0.0228 0.113296,0.32501 0,0.59345 0.0095,0.58953 -1.392644,0.58953 -0.777598,0 -1.204051,-0.0241 -1.232138,-0.0696 z m -6.6163297,-2.74796 c -0.1645747,-0.11641 -0.1920354,-0.36502 -0.053024,-0.48038 0.1482405,-0.12302 0.4974329,-0.10494 0.5967658,0.0309 0.1086383,0.14857 0.1101465,0.23462 0.00664,0.37025 -0.1225536,0.16046 -0.3825057,0.19789 -0.5502581,0.0793 z m -4.4541785,-1.4589 c -0.108771,-0.032 -0.2563665,-0.12433 -0.3279731,-0.20523 -0.2158689,-0.24385 -0.846982,-1.35955 -0.9205426,-1.62737 -0.1442756,-0.52532 -0.039839,-0.67794 1.0984445,-1.60428 0.566061,-0.46067 0.7196894,-0.62475 0.8670762,-0.926 0.1695641,-0.34657 0.1768585,-0.39823 0.1368104,-0.96798 -0.02324,-0.33101 -0.08556,-0.74758 -0.1384798,-0.9257 -0.1252665,-0.42179 -0.5321407,-0.88501 -0.8909799,-1.01432 -0.1506689,-0.0543 -0.6380812,-0.22301 -1.0831443,-0.3749 -1.21426719,-0.41443 -1.28578841,-0.53281 -1.09273803,-1.80846 0.14148681,-0.93482 0.20037324,-1.10449 0.45874128,-1.32189 0.18799459,-0.1582 0.20817989,-0.16054 1.38551025,-0.16054 0.8592468,0 1.2537328,-0.0246 1.404857,-0.0877 0.2771115,-0.11578 0.7279513,-0.62646 1.0426447,-1.18098 0.2141463,-0.37736 0.2579507,-0.51925 0.282082,-0.91363 0.033674,-0.55086 -0.010055,-0.65966 -0.6956056,-1.72871 -0.7204387,-1.12348 -0.6997317,-1.3139 0.2312298,-2.12646 1.1755281,-1.02603 1.239698,-1.02316 2.4858462,0.11119 0.3026467,0.27549 0.7070546,0.57485 0.8986917,0.66522 0.3092012,0.14583 0.4039431,0.16021 0.8415695,0.12768 0.5987199,-0.0445 1.2189626,-0.24941 1.5824399,-0.52281 0.4090371,-0.30768 0.5739341,-0.70312 0.8155791,-1.95595 0.116142,-0.60212 0.254404,-1.16275 0.307248,-1.24583 0.169194,-0.26602 0.458646,-0.33447 1.414242,-0.33447 1.319633,0 1.386667,0.054 1.613202,1.29968 0.08689,0.47794 0.178006,1.0095 0.202403,1.18124 0.05236,0.36819 0.355149,0.85138 0.66269,1.05742 0.117508,0.0787 0.481725,0.23243 0.809357,0.34159 0.666447,0.22202 1.203254,0.25726 1.571949,0.10322 0.125371,-0.0525 0.562163,-0.39406 0.970649,-0.75928 0.863738,-0.77224 0.943492,-0.82329 1.291385,-0.82634 0.300588,-0.003 0.379328,0.0453 1.151852,0.70185 1.005528,0.8545 1.007985,0.9998 0.04268,2.53267 -0.466254,0.74042 -0.544073,0.95606 -0.49489,1.37138 0.04743,0.40009 0.564846,1.5037 0.839378,1.79018 0.423654,0.44209 0.578923,0.48035 1.906211,0.46976 1.357291,-0.0109 1.480053,0.0237 1.697263,0.47802 0.180349,0.37716 0.396753,1.78653 0.31807,2.07147 -0.106902,0.38718 -0.260938,0.48635 -1.254505,0.80769 -1.13197,0.3661 -1.175774,0.387 -1.471089,0.70272 -0.256632,0.27438 -0.302959,0.3751 -0.459139,0.99837 -0.216954,0.86585 -0.217523,1.10168 -0.0038,1.53077 0.140804,0.28259 0.310207,0.45211 0.987221,0.98795 0.945607,0.74844 1.096485,0.95668 0.999666,1.37978 -0.09851,0.43051 -0.845279,1.7102 -1.082361,1.85475 -0.37303,0.22748 -0.563386,0.177 -2.595822,-0.68835 -0.391659,-0.16675 -0.959722,-0.40455 -1.262359,-0.52841 -0.302647,-0.12385 -0.571781,-0.24569 -0.598075,-0.2707 -0.04639,-0.044 0.609714,-0.5593 0.710005,-0.5575 0.02741,4.8e-4 0.293284,0.084 0.590761,0.18561 0.537785,0.18366 0.541797,0.18399 0.706903,0.0607 0.278534,-0.20797 0.677877,-0.9008 0.685437,-1.18923 0.0057,-0.23086 -0.03358,-0.29498 -0.429374,-0.69377 l -0.436042,-0.43941 0.06412,-0.90449 c 0.03519,-0.49749 0.09488,-1.19092 0.132514,-1.54099 0.06365,-0.59179 0.0057,-1.84934 -0.110156,-2.37374 -0.591578,-2.68784 -2.536528,-4.95899 -5.038433,-5.88348 -0.293114,-0.1083 -1.269549,-0.56088 -1.514372,-0.70192 -0.01394,-0.008 -0.06706,-0.25568 -0.117697,-0.55026 -0.133301,-0.77409 -0.197243,-0.82689 -1.001031,-0.82689 -0.788735,0 -0.826839,0.0303 -0.985751,0.78772 l -0.11635,0.5544 -0.527635,0.26428 c -0.290211,0.14536 -0.687865,0.30831 -0.883695,0.36212 -0.4563601,0.12535 -1.4441974,0.6065 -1.9488393,0.94918 -0.9502553,0.64531 -1.8269783,1.58278 -2.4429714,2.61231 -0.832103,1.39073 -1.2293777,3.25369 -1.04642,4.90723 0.048376,0.43697 0.091631,1.13851 0.096279,1.55899 l 0.00854,0.76451 -0.2363236,0.20654 c -0.1299998,0.11359 -0.3266736,0.28264 -0.4370857,0.37567 -0.3105292,0.26165 -0.3178236,0.42305 -0.043823,0.97171 0.278392,0.55749 0.4538657,0.76843 0.6404659,0.76997 0.073893,7e-4 0.3742153,-0.0781 0.6673574,-0.17481 l 0.5329754,-0.17594 0.1791161,0.13242 c 0.098517,0.0728 0.2738011,0.18139 0.3895156,0.24123 0.115724,0.0599 0.21039,0.13361 0.21039,0.16394 0,0.0304 -0.2694567,0.17285 -0.5988053,0.31669 -0.3293486,0.14385 -1.0212168,0.45533 -1.5374881,0.6922 -1.5525606,0.71231 -1.7599911,0.77891 -2.1074856,0.67675 z m 12.7411742,-1.48571 c -1.198455,-0.426 -2.203831,-1.36836 -2.607698,-2.44418 -0.07664,-0.20422 -0.210523,-0.64433 -0.297458,-0.97803 -0.226099,-0.86783 -0.431025,-1.25596 -0.932802,-1.76679 -0.328201,-0.3341 -0.561698,-0.50311 -0.945418,-0.68433 -0.4912481,-0.232 -0.5351661,-0.24068 -1.2216753,-0.24142 -0.6371081,-6.7e-4 -0.7578594,0.0186 -1.1466825,0.18244 -0.7766029,0.32734 -1.3106027,0.93663 -1.5128541,1.72608 -0.3337214,1.30268 0.3779147,2.56147 1.5248818,2.69732 0.6600915,0.0782 1.1904205,-0.13672 1.4992897,-0.60756 0.1573463,-0.23987 0.2044043,-0.66381 0.1067981,-0.96235 -0.070004,-0.21428 -0.1209031,-0.26388 -0.3214566,-0.31345 -0.2745979,-0.0679 -0.570747,0.0747 -0.570747,0.27459 0,0.21047 -0.161729,0.35518 -0.3896958,0.3487 -0.2963293,-0.009 -0.579929,-0.30009 -0.6260383,-0.64382 -0.1302654,-0.97127 0.943492,-1.64483 2.0153809,-1.26417 0.8536261,0.30312 1.4262411,1.45849 1.2008351,2.42288 -0.253018,1.08243 -0.9826201,1.78855 -2.1282872,2.05973 -0.7083731,0.16769 -1.7219161,-0.0817 -2.3727118,-0.58377 -0.4028617,-0.3108 -0.5786579,-0.32317 -1.1657864,-0.0821 -0.4988747,0.20487 -0.5457714,0.18968 -0.8548398,-0.2768 -0.3090969,-0.46652 -0.2859047,-0.56979 0.2385432,-1.0625 l 0.4489427,-0.42179 -0.00569,-0.77683 c -0.00664,-1.06288 0.210371,-1.74886 0.8036367,-2.53463 0.532283,-0.705 1.4275503,-1.26579 2.3773502,-1.48916 0.639413,-0.15038 1.4927913,-0.0875 2.3028504,0.16988 0.589642,0.18728 0.708544,0.20371 1.333387,0.18408 0.655282,-0.0206 0.710337,-0.0336 1.229975,-0.2918 1.061199,-0.52727 1.706521,-1.43386 1.788078,-2.512 0.139362,-1.84222 -1.584963,-3.24345 -3.160327,-2.56816 -0.300883,0.12898 -0.691916,0.51327 -0.867219,0.85226 -0.146229,0.28277 -0.192851,0.77904 -0.09971,1.06128 0.139703,0.4233 0.571544,0.81646 0.896766,0.81646 0.0682,0 0.200715,-0.0604 0.294527,-0.13417 0.195849,-0.15404 0.231315,-0.47286 0.0755,-0.67885 -0.258169,-0.34131 0.01973,-0.76223 0.503238,-0.76223 0.499738,0 0.863994,0.33446 1.025192,0.94132 0.06915,0.26061 0.06517,0.35493 -0.02817,0.65123 -0.131811,0.41811 -0.467667,0.82718 -0.876457,1.06749 -0.272084,0.15995 -0.363117,0.17756 -0.917065,0.17756 -0.589832,0 -0.63247,-0.01 -1.04236,-0.24056 -1.8904369,-1.06409 -1.601696,-3.97711 0.490015,-4.94353 0.267853,-0.12376 0.528441,-0.28976 0.579075,-0.36886 0.05056,-0.0791 0.112461,-0.34775 0.13737,-0.59698 0.06175,-0.61695 0.128065,-0.67973 0.718381,-0.67973 0.564828,0 0.634556,0.0672 0.706153,0.67973 0.07256,0.62054 0.162279,0.77602 0.517846,0.89716 1.045718,0.35631 2.041096,1.55657 2.266103,2.73253 0.23639,1.23548 0.0066,2.35488 -0.689601,3.37114 -0.101192,0.14754 -0.426367,0.51168 -0.722601,0.8092 -0.633058,0.6358 -0.907713,1.08546 -1.083983,1.77465 -0.163939,0.641 -0.162535,1.10572 0.0057,1.71308 0.300484,1.08809 1.117619,1.86573 2.177613,2.07238 0.808123,0.15754 1.636584,-0.11475 2.176616,-0.7154 0.365593,-0.40662 0.502129,-0.6995 0.544633,-1.16833 0.0867,-0.95684 -0.457688,-1.73388 -1.295312,-1.8487 -0.529835,-0.0727 -1.032969,0.22679 -1.121042,0.66713 -0.06336,0.31685 0.138195,0.47878 0.537158,0.43152 0.423303,-0.0503 0.634775,0.11159 0.625166,0.47808 -0.01926,0.73535 -0.954116,1.11497 -1.65345,0.67147 -0.589196,-0.37366 -0.80246,-0.84009 -0.747899,-1.63588 0.02599,-0.38079 0.07513,-0.57596 0.196513,-0.78241 0.358943,-0.6104 0.953082,-1.01789 1.679297,-1.15172 0.747681,-0.13778 1.564019,0.1603 2.224462,0.81227 0.642657,0.63439 0.864003,1.24185 0.865729,2.37593 l 7.02e-4,0.62843 0.453154,0.36156 c 0.351289,0.28029 0.453145,0.39925 0.453145,0.52919 0,0.29616 -0.443934,0.92738 -0.652218,0.92738 -0.06147,0 -0.267589,-0.0726 -0.458049,-0.16122 -0.462479,-0.21529 -0.680438,-0.20879 -0.925849,0.0275 -0.297401,0.28647 -0.924132,0.64081 -1.385539,0.78338 -0.558918,0.17269 -1.703751,0.17118 -2.193453,-0.003 z m -9.9108878,-1.3166 c 0.095842,-0.11974 0.097445,-0.15472 0.014513,-0.31509 -0.124906,-0.24152 -0.4178205,-0.2501 -0.5707375,-0.0167 -0.1074241,0.16395 -0.096089,0.22992 0.073513,0.42812 0.1128499,0.13189 0.3356375,0.0875 0.4826829,-0.0963 z m 14.9611488,0.15728 c 0.109065,-0.0117 0.173567,-0.32927 0.0998,-0.49118 -0.05625,-0.12357 -0.122649,-0.16158 -0.28195,-0.16158 -0.17036,0 -0.222977,0.0353 -0.288617,0.19382 -0.10436,0.25193 0.03823,0.50624 0.269627,0.48089 0.08309,-0.009 0.173577,-0.0189 0.201142,-0.0219 z m -7.412112,-4.37876 c 0.288048,-0.20175 0.112024,-0.67606 -0.250903,-0.67606 -0.192728,0 -0.38206,0.19962 -0.38206,0.40282 0,0.14841 0.225614,0.37401 0.374016,0.37401 0.06327,0 0.179818,-0.0453 0.258947,-0.10077 z m 0.132105,-8.92993 c 0.118143,-0.25931 -0.01764,-0.48553 -0.291321,-0.48553 -0.280668,0 -0.414605,0.23314 -0.279226,0.48608 0.12206,0.2281 0.46651,0.22776 0.570547,-5.5e-4 z"
       id="path3510"
       inkscape:connector-curvature="0" />
  </g>
</svg>
