<?xml version="1.0" encoding="UTF-8" standalone="no"?>
<!-- Created with Inkscape (http://www.inkscape.org/) -->

<svg
   xmlns:dc="http://purl.org/dc/elements/1.1/"
   xmlns:cc="http://creativecommons.org/ns#"
   xmlns:rdf="http://www.w3.org/1999/02/22-rdf-syntax-ns#"
   xmlns:svg="http://www.w3.org/2000/svg"
   xmlns="http://www.w3.org/2000/svg"
   xmlns:sodipodi="http://sodipodi.sourceforge.net/DTD/sodipodi-0.dtd"
   xmlns:inkscape="http://www.inkscape.org/namespaces/inkscape"
   version="1.1"
   id="svg2"
   width="160"
   height="64"
   viewBox="0 0 160 64"
   sodipodi:docname="melisa.svg"
   inkscape:version="0.92.3 (2405546, 2018-03-11)">
  <metadata
     id="metadata8">
    <rdf:RDF>
      <cc:Work
         rdf:about="">
        <dc:format>image/svg+xml</dc:format>
        <dc:type
           rdf:resource="http://purl.org/dc/dcmitype/StillImage" />
        <dc:title></dc:title>
      </cc:Work>
    </rdf:RDF>
  </metadata>
  <defs
     id="defs6">
    <mask
       id="id0-0">
      <linearGradient
         y2="6501.3501"
         x2="3875.8501"
         y1="6137.54"
         x1="3961.8401"
         gradientUnits="userSpaceOnUse"
         id="linearGradient687">
        <stop
           id="stop4-8"
           style="stop-opacity:1; stop-color:white"
           offset="0" />
        <stop
           id="stop6-6"
           style="stop-opacity:0; stop-color:white"
           offset="1" />
      </linearGradient>
      <rect
         id="rect9-8"
         height="376.70999"
         width="965.13"
         y="6233.8501"
         x="3370.9199"
         style="fill:url(#id1)" />
    </mask>
    <linearGradient
       y2="6501.3501"
       x2="3875.8501"
       y1="6137.54"
       x1="3961.8401"
       gradientUnits="userSpaceOnUse"
       id="id1">
      <stop
         id="stop4"
         style="stop-opacity:1; stop-color:white"
         offset="0" />
      <stop
         id="stop6"
         style="stop-opacity:0; stop-color:white"
         offset="1" />
    </linearGradient>
    <mask
       id="id2-2">
      <linearGradient
         y2="6501.04"
         x2="1865.65"
         y1="6137.23"
         x1="1951.64"
         gradientUnits="userSpaceOnUse"
         id="linearGradient693">
        <stop
           id="stop12-3"
           style="stop-opacity:1; stop-color:white"
           offset="0" />
        <stop
           id="stop14-8"
           style="stop-opacity:0; stop-color:white"
           offset="1" />
      </linearGradient>
      <rect
         id="rect17-5"
         height="376.70999"
         width="965.13"
         y="6233.54"
         x="1360.72"
         style="fill:url(#id3)" />
    </mask>
    <linearGradient
       y2="6501.04"
       x2="1865.65"
       y1="6137.23"
       x1="1951.64"
       gradientUnits="userSpaceOnUse"
       id="id3">
      <stop
         id="stop12"
         style="stop-opacity:1; stop-color:white"
         offset="0" />
      <stop
         id="stop14"
         style="stop-opacity:0; stop-color:white"
         offset="1" />
    </linearGradient>
  </defs>
  <sodipodi:namedview
     pagecolor="#ffffff"
     bordercolor="#666666"
     borderopacity="1"
     objecttolerance="10"
     gridtolerance="10"
     guidetolerance="10"
     inkscape:pageopacity="0"
     inkscape:pageshadow="2"
     inkscape:window-width="1321"
     inkscape:window-height="713"
     id="namedview4"
     showgrid="false"
     inkscape:zoom="1.8915106"
     inkscape:cx="118.10438"
     inkscape:cy="33.332246"
     inkscape:window-x="45"
     inkscape:window-y="27"
     inkscape:window-maximized="1"
     inkscape:current-layer="svg2" />
  <g
     id="g6080"
     transform="matrix(2.2828614,0,0,2.2828614,-48.866429,-590.27404)">
    <path
       style="clip-rule:evenodd;display:inline;fill:#ffffff;fill-rule:nonzero;stroke-width:0.03498891;image-rendering:optimizeQuality;shape-rendering:geometricPrecision;text-rendering:geometricPrecision"
       inkscape:connector-curvature="0"
       id="path847"
       d="M 55.04289,283.95865 H 42.69821 v -1.25097 c 0.36209,-0.0329 0.80645,-0.0878 1.3387,-0.15907 0.52672,-0.0768 0.88879,-0.15913 1.08079,-0.24142 0.39508,-0.16461 0.6749,-0.38407 0.84492,-0.6584 0.1701,-0.27982 0.25792,-0.63642 0.25792,-1.06436 v -17.04119 l -7.82929,20.05331 h -2.02456 c -0.0932,-0.3566 -0.33465,-1.05888 -0.71323,-2.10682 -0.37859,-1.05342 -0.68586,-1.89287 -0.92173,-2.52383 l -5.76086,-15.6805 v 13.87547 c 0,1.32768 0.0878,2.33721 0.26332,3.02854 0.18104,0.69126 0.4664,1.20154 0.86142,1.51975 0.26879,0.22492 0.74614,0.4389 1.43748,0.64191 0.69126,0.2085 1.17409,0.32369 1.45391,0.35661 v 1.25097 h -9.84284 v -1.25097 c 0.26886,-0.0329 0.70227,-0.10423 1.30578,-0.21944 0.60898,-0.10972 1.10276,-0.30727 1.48683,-0.58708 0.42801,-0.29624 0.71878,-0.80652 0.8669,-1.51975 0.14812,-0.71323 0.22492,-1.72825 0.22492,-3.04497 v -11.30777 c 0,-0.68586 -0.0877,-1.25644 -0.25785,-1.71182 -0.17009,-0.45539 -0.42794,-0.81748 -0.7736,-1.08634 -0.42794,-0.32917 -0.8669,-0.54314 -1.32229,-0.64191 -0.44983,-0.0933 -0.90522,-0.15915 -1.36608,-0.19207 v -1.25088 h 10.56154 l 5.57435,15.01662 4.7568,-12.18014 c 0.15915,-0.45539 0.31822,-0.98758 0.46641,-1.61306 0.14812,-0.61992 0.23038,-1.03144 0.24134,-1.22342 h 10.10076 v 1.25088 c -0.34567,0.022 -0.70228,0.0658 -1.08087,0.12622 -0.37859,0.0658 -0.73521,0.1536 -1.08087,0.25784 -0.41691,0.14265 -0.69673,0.36216 -0.82842,0.66388 -0.13717,0.29632 -0.20303,0.63095 -0.20303,0.99304 v 16.16333 c 0,0.38408 0.0658,0.70785 0.20303,0.97116 0.13169,0.26338 0.41151,0.49377 0.82842,0.68585 0.21397,0.0987 0.57066,0.18653 1.05897,0.27426 0.48824,0.0823 0.86682,0.14265 1.13569,0.17557 z"
       class="fil2" />
    <path
       style="clip-rule:evenodd;display:inline;fill:#009ee0;fill-rule:nonzero;stroke-width:0.03498891;image-rendering:optimizeQuality;shape-rendering:geometricPrecision;text-rendering:geometricPrecision"
       inkscape:connector-curvature="0"
       id="path849"
       d="m 53.98829,285.30675 -12.29785,-1.0765 0.10913,-1.24615 c 0.36357,-0.001 0.81112,-0.0171 1.34744,-0.0418 0.53144,-0.0308 0.8993,-0.0811 1.09781,-0.14626 0.40788,-0.12957 0.70575,-0.32378 0.89914,-0.58221 0.19385,-0.26392 0.3123,-0.61157 0.34966,-1.03794 l 1.48602,-16.97639 -9.54821,19.29444 -2.01688,-0.17652 c -0.0618,-0.3635 -0.24104,-1.08412 -0.52678,-2.16107 -0.28529,-1.08243 -0.5182,-1.94547 -0.69813,-2.59464 l -4.37163,-16.1233 -1.20997,13.82271 c -0.11579,1.32273 -0.11638,2.33605 -10e-4,3.04009 0.12008,0.70442 0.35988,1.23771 0.72559,1.58916 0.24821,0.24748 0.70508,0.50228 1.37606,0.76479 0.67054,0.26797 1.14147,0.42484 1.41737,0.48201 l -0.10914,1.24624 -9.80547,-0.85832 0.10906,-1.24623 c 0.27071,-0.009 0.70871,-0.0427 1.31997,-0.10468 0.61631,-0.0563 1.12542,-0.20997 1.53241,-0.45525 0.45213,-0.25776 0.78633,-0.74074 0.99616,-1.43836 0.20975,-0.69761 0.37474,-1.70212 0.48957,-3.01383 l 0.98602,-11.26486 c 0.0599,-0.68318 0.0222,-1.25924 -0.10758,-1.72773 -0.1297,-0.46854 -0.35498,-0.85173 -0.67594,-1.14966 -0.39767,-0.36535 -0.81621,-0.61676 -1.26124,-0.75488 -0.44007,-0.13207 -0.88799,-0.23736 -1.34419,-0.31038 l 0.10906,-1.24623 10.52144,0.92099 4.24371,15.44575 5.80088,-11.71907 c 0.19822,-0.43977 0.40316,-0.95612 0.60522,-1.56629 0.20162,-0.60469 0.31954,-1.00738 0.34721,-1.19775 l 10.06237,0.88073 -0.10907,1.24622 c -0.34632,-0.008 -0.70538,0.004 -1.08782,0.0315 -0.38288,0.0325 -0.74578,0.0889 -1.09921,0.16262 -0.42779,0.10572 -0.72573,0.29995 -0.88325,0.58909 -0.16247,0.28314 -0.25725,0.61082 -0.28877,0.9715 l -1.40955,16.10208 c -0.0335,0.38266 0.004,0.71078 0.11757,0.98521 0.10823,0.27374 0.36689,0.52775 0.76553,0.75541 0.20457,0.11704 0.55216,0.23563 1.031,0.36562 0.47921,0.12461 0.85114,0.21768 1.11608,0.2739 z"
       class="fil3" />
    <path
       style="clip-rule:evenodd;display:inline;fill:#ffffff;fill-rule:nonzero;stroke-width:0.03498891;image-rendering:optimizeQuality;shape-rendering:geometricPrecision;text-rendering:geometricPrecision"
       inkscape:connector-curvature="0"
       id="path851"
       d="m 52.81968,286.55327 -12.15714,-2.143 0.21715,-1.23196 c 0.36231,0.0306 0.80957,0.0535 1.34605,0.0757 0.53203,0.0159 0.90292,-0.002 1.10638,-0.0502 0.41758,-0.0935 0.73121,-0.2611 0.94629,-0.50171 0.2161,-0.246 0.36445,-0.58198 0.43873,-1.0034 l 2.95842,-16.78223 -11.19153,18.38936 -1.99386,-0.35144 c -0.0299,-0.36741 -0.14576,-1.10091 -0.33664,-2.19865 -0.18992,-1.10313 -0.34677,-1.98312 -0.46958,-2.64545 L 30.73277,261.66802 28.324,275.33256 c -0.23053,1.30756 -0.31924,2.31702 -0.26642,3.02833 0.0583,0.71219 0.25074,1.26411 0.58449,1.64612 0.22573,0.26827 0.65863,0.56184 1.30416,0.88176 0.64464,0.32524 1.1001,0.52263 1.36994,0.60357 l -0.21716,1.23196 -9.69323,-1.70872 0.21715,-1.23194 c 0.27042,0.0143 0.70974,0.0193 1.32405,0.0105 0.61882,-0.002 1.13939,-0.11107 1.56622,-0.32 0.47284,-0.21744 0.84781,-0.6695 1.11748,-1.34618 0.26968,-0.67667 0.52161,-1.6629 0.75016,-2.95966 l 1.96307,-11.13584 c 0.11904,-0.67536 0.13162,-1.25252 0.0431,-1.73055 -0.0884,-0.47804 -0.27952,-0.87933 -0.57324,-1.20412 -0.3643,-0.3985 -0.75939,-0.68542 -1.19074,-0.86173 -0.4269,-0.16994 -0.86394,-0.31385 -1.31207,-0.42623 l 0.21715,-1.23187 10.40114,1.83345 2.88265,15.75612 6.79904,-11.16919 c 0.23571,-0.42084 0.48482,-0.91735 0.73926,-1.50762 0.25348,-0.58478 0.40597,-0.9758 0.45014,-1.16291 l 9.94715,1.75347 -0.21714,1.23188 c -0.34419,-0.0384 -0.70302,-0.057 -1.08626,-0.0634 -0.38429,-4.5e-4 -0.75074,0.0238 -1.10921,0.0664 -0.43541,0.0681 -0.74911,0.23566 -0.93111,0.50992 -0.18653,0.26798 -0.30949,0.58612 -0.3723,0.94281 l -2.80601,15.91762 c -0.0667,0.37822 -0.058,0.70842 0.0314,0.99164 0.0839,0.28218 0.31948,0.55771 0.6968,0.81917 0.19355,0.13444 0.52952,0.2827 0.99519,0.45399 0.46663,0.1658 0.82887,0.29098 1.08797,0.37007 z"
       class="fil2" />
    <path
       style="clip-rule:evenodd;display:inline;fill:#ffffff;fill-rule:nonzero;stroke-width:0.03498891;image-rendering:optimizeQuality;shape-rendering:geometricPrecision;text-rendering:geometricPrecision"
       inkscape:connector-curvature="0"
       id="path853"
       d="m 61.51588,280.40258 c 0.29935,0.23742 0.53677,0.51612 0.53677,1.04253 0,0.67098 -0.40256,1.23868 -1.08383,1.34189 v -4.29402 c -0.13421,-0.0206 -0.22706,-0.0412 -0.4542,-0.0412 -1.74445,0 -3.12763,1.27995 -3.12763,3.02441 0,1.74445 1.4761,3.00377 3.07606,3.00377 1.70317,0 3.0347,-1.39353 3.0347,-3.03478 0,-0.58834 -0.17543,-1.1561 -0.51606,-1.63087 -0.33034,-0.48513 -0.82583,-0.88777 -1.46581,-1.16639 z m -1.70317,2.36379 c -0.34063,-0.0723 -0.98061,-0.41293 -0.98061,-1.30062 0,-0.88769 0.63998,-1.22831 0.98061,-1.30061 z"
       class="fil2" />
    <path
       style="clip-rule:evenodd;display:inline;fill:#ffffff;fill-rule:nonzero;stroke-width:0.03498891;image-rendering:optimizeQuality;shape-rendering:geometricPrecision;text-rendering:geometricPrecision"
       inkscape:connector-curvature="0"
       id="path855"
       d="m 63.49782,277.63113 v -1.71345 H 55.8594 v 1.71345 z m -5.72883,-4.55261 v 1.71345 h 5.72883 v -1.71345 z m -1.90959,0 v 1.71345 H 57.16 v -1.71345 z"
       class="fil2" />
    <path
       style="clip-rule:evenodd;display:inline;fill:#ffffff;fill-rule:nonzero;stroke-width:0.03498891;image-rendering:optimizeQuality;shape-rendering:geometricPrecision;text-rendering:geometricPrecision"
       inkscape:connector-curvature="0"
       id="path857"
       d="m 58.68945,268.29205 c -1.4209,0.52279 -1.37986,1.85676 -1.1883,2.58552 0.30173,1.14812 1.29285,1.95488 2.39103,1.66625 0.74873,-0.19672 1.06051,-0.91906 1.1012,-1.6982 0.13118,-1.16581 0.0736,-1.58819 0.50289,-1.70103 0.26953,-0.0709 0.50799,0.18675 0.58139,0.46619 0.0184,0.0699 0.14692,0.55911 -0.34381,0.76281 l 0.43287,1.64722 c 1.41818,-0.53278 1.46442,-1.90033 1.24402,-2.73898 -0.32273,-1.22795 -1.31171,-2.06732 -2.4798,-1.76034 -1.19791,0.31481 -1.21515,1.38658 -1.2281,2.39324 -0.0144,0.47336 -0.0765,0.92733 -0.37592,1.00605 -0.14983,0.0394 -0.40093,-0.0227 -0.49275,-0.37222 -0.12852,-0.48912 0.16565,-0.58782 0.28292,-0.62925 z"
       class="fil2" />
    <path
       style="clip-rule:evenodd;display:inline;fill:#ffffff;fill-rule:nonzero;stroke-width:0.03498891;image-rendering:optimizeQuality;shape-rendering:geometricPrecision;text-rendering:geometricPrecision"
       inkscape:connector-curvature="0"
       id="path859"
       d="m 57.57285,261.16502 v 1.71346 h 0.60906 v 0.0206 c -0.35099,0.20649 -0.8052,0.73291 -0.8052,1.67224 0,1.52766 1.17675,2.87984 3.05541,2.87984 1.64124,0 3.0657,-1.06318 3.0657,-2.87984 0,-0.67099 -0.25807,-1.38318 -0.81547,-1.67224 v -0.0206 h 0.61933 v -1.71346 z m 2.87991,4.57272 c -0.65034,0 -1.47609,-0.43355 -1.47609,-1.41417 0,-0.97026 0.76383,-1.44509 1.45545,-1.44509 0.55742,0 1.46574,0.36127 1.46574,1.43481 0,1.03219 -0.90832,1.42445 -1.4451,1.42445 z"
       class="fil2" />
    <g
       id="g939"
       transform="matrix(0.00398716,0,0,0.00398716,65.34895,258.57192)"
       style="clip-rule:evenodd;display:inline;fill-rule:evenodd;image-rendering:optimizeQuality;shape-rendering:geometricPrecision;text-rendering:geometricPrecision">
      <metadata
         id="metadata903" />
      <g
         id="g937">
        <path
           id="path905"
           d="m 4424.22,1929.72 c 613.85,493.87 1008.7,1248.84 1016.03,2096.31 126.38,-177.76 252.41,-409.35 344.02,-727.26 -273.5,-145.96 -321.7,-598.72 -266.46,-869.22 52.39,132.81 27.62,191.67 117.09,252.39 112.86,-515.49 439.27,-431.25 366.97,-875.99 0,0 251.98,202.95 356.66,467.6 42.26,106.97 21.89,436.68 43.29,529.47 19.4,-86.73 95.69,-60.78 118.39,-251.15 55.5,34.85 68.8,365.3 -108,611.65 -67.54,94.12 -133.38,147.19 -214.53,172.59 -14.69,216.35 -196.12,783.05 -324.86,992.79 -206.77,336.97 -596.64,728.78 -644.88,776.76 -190.74,452.63 -500.55,842.78 -890.11,1131.37 127.9,105.7 205.67,245.1 205.67,397.91 0,151.57 -76.5,289.93 -202.48,395.3 H 3124.45 c -89.94,-75.22 -154.64,-167.26 -184.32,-268.91 -72.56,5.81 -145.89,8.87 -219.94,8.87 -70.47,0 -140.31,-2.68 -209.43,-7.94 -29.79,101.29 -94.37,192.99 -184.03,267.98 H 1110.16 c -125.99,-105.37 -202.48,-243.73 -202.48,-395.3 0,-150.8 75.73,-288.54 200.63,-393.73 C 436.15,5745.94 -0.01,4948.96 -0.01,4050 -0.01,3185.74 403.14,2415.72 1031.52,1917.42 690.07,1890.05 326.17,1759.76 218.05,1487.5 302.63,1338.76 610.13,1233.81 810.77,1180.22 731.67,780.02 588.65,175.66 1001.22,1.99 c 209.56,-32.02 355.96,331.52 399.28,476.77 171.26,-18.19 1212.09,-996.82 2805.65,2.68 154.37,-204.66 172.68,-452.48 441.61,-479.91 417.4,175.43 262.73,782.48 192.06,1178.31 197.19,46.85 506.99,163.1 590.95,307.66 -47.57,115.91 -222.43,263.53 -379.59,335 -189.19,85.84 -400.16,106.68 -628.26,100.63 0.37,2.19 0.76,4.4 1.3,6.59 z"
           class="fil0"
           inkscape:connector-curvature="0"
           style="fill:#fefefe" />
        <path
           id="path907"
           d="m 6182.84,2208.29 c 25.69,41 47.53,82.42 63.42,122.75 40.42,123 2.6,379.79 37.15,529.81 6.78,29.46 53.89,202.99 43.51,216.97 -149.1,207.84 -494.67,124 -532.49,-64.18 l 74.14,-282.4 c 58.32,-266.32 214.53,-368.4 314.27,-522.95 z"
           class="fil1"
           inkscape:connector-curvature="0"
           style="fill:#ff0000" />
        <path
           id="path909"
           d="m 4740,179.95 c 205.57,166.55 176.2,646.84 63.5,889.69 -271.92,585.78 -809.63,449.84 -781.05,8.85 15.01,-232.24 118.74,-198 258.78,-290.19 C 4544.95,614.89 4545.18,360.06 4740,179.95 Z"
           class="fil1"
           inkscape:connector-curvature="0"
           style="fill:#ff0000" />
        <path
           id="path911"
           d="m 1111.74,104.11 c 207.64,184.51 162.25,419.24 483.28,617.96 147.43,91.24 234.65,81.82 234.49,311.03 -0.46,437.2 -539.78,522.46 -791.97,-63.4 -106.83,-248.17 -120.39,-708.12 74.2,-865.59 z"
           class="fil1"
           inkscape:connector-curvature="0"
           style="fill:#ff0000" />
        <path
           id="path913"
           d="m 265.89,3708.69 c 178.75,369.97 117.26,234.85 603.11,426.06 1253.85,493.48 147.67,579.62 417.25,1153.91 76,161.86 232.82,651.5 47.64,815.09 C 675.4,5658.44 242.5,4904.79 242.5,4049.99 c 0,-115.8 8.02,-229.73 23.39,-341.3 z"
           class="fil2"
           inkscape:connector-curvature="0"
           style="fill:#009ee0" />
        <path
           id="path915"
           d="m 1770,4410.24 c 82.18,109.39 341.62,500.93 536.4,522.85 742.64,83.5 -379.21,830.16 452.6,830.16 749.8,0 -370.02,-1137.71 1360.63,-785.58 581.08,118.25 656.69,-673.8 59.95,-673.8 l -48.96,-0.03 c -660.92,325 -1628.64,368.12 -2360.62,106.4 z"
           class="fil2"
           inkscape:connector-curvature="0"
           style="fill:#009ee0" />
        <path
           id="path917"
           d="m 5125.11,3451.59 c -332.11,77.22 -123.54,975.15 -202.25,1285.46 -202.4,797.75 -646.23,419.66 -945.11,912.13 -136.68,225.15 -31.62,417.83 198.45,405.72 619.2,-450.38 1021.72,-1180.63 1021.72,-2004.91 0,-206.34 -25.26,-406.77 -72.81,-598.4 z"
           class="fil2"
           inkscape:connector-curvature="0"
           style="fill:#009ee0" />
        <path
           id="path919"
           d="m 2900.4,2772.39 c 559.43,-51.6 1457.24,65.73 1882.42,485.27 288.39,284.64 -309.65,1246.72 -1872.69,1214.7 -633.7,-13.03 -1472.79,-230.94 -1732.76,-804.35 -70.74,-156.13 -140.03,-362.85 12.72,-486 296.9,-239.32 1241.32,-366.38 1710.31,-409.62 z"
           class="fil3"
           inkscape:connector-curvature="0"
           style="fill:#fcd2c0" />
        <path
           id="path921"
           d="m 3069.11,1463.63 c 10.3,0 20.45,1.61 30.34,4.6 -30.34,27.73 -49.76,69.98 -49.76,117.25 0,83.5 60.44,151.3 135.1,151.3 27.77,0 53.51,-9.46 75.03,-25.62 15.1,62.47 23.71,133.37 23.71,208.48 0,251.85 -95.99,455.97 -214.42,455.97 -118.32,0 -214.39,-204.12 -214.39,-455.97 0,-251.88 96.07,-456.01 214.39,-456.01 z m 81.12,1521.75 c 62.09,33.22 139.62,146.5 173.03,252.99 33.4,106.49 10,165.78 -52.09,132.57 -62.09,-33.21 -139.63,-146.5 -173.03,-252.99 -33.41,-106.49 -10.01,-165.78 52.09,-132.57 z m -780.77,30.41 c -62.09,33.22 -139.63,146.51 -173.03,252.99 -33.41,106.49 -10.01,165.79 52.08,132.57 62.1,-33.21 139.63,-146.5 173.04,-252.99 33.4,-106.48 10,-165.78 -52.09,-132.57 z m -609.69,603.94 c 17.22,91.3 105.11,241.4 313.08,328.32 241.18,127.01 591.82,155.34 922.19,129.41 l 11.07,-11.08 c 152.67,-152.28 262.5,-316.37 452,-433.25 l 2.53,-1.6 2.68,-1.39 c 99.45,-51.86 226.78,-81.19 329.6,-21.07 23.32,13.68 44.33,30.48 60.71,50.55 31.21,-72.35 24.33,-128.41 49.36,-168.71 78.11,-126.08 163.36,44.22 109.28,186.17 -90.36,236.91 -486.78,528.61 -1145.22,544.96 -666.74,16.56 -1115.79,-210.09 -1213.02,-471.09 -86.22,-231.47 76.44,-286.35 105.74,-131.22 z M 4424.23,1929.72 c 613.85,493.87 1008.7,1248.84 1016.03,2096.31 126.38,-177.76 252.41,-409.35 344.02,-727.26 -273.5,-145.96 -321.7,-598.72 -266.46,-869.22 52.39,132.81 27.62,191.67 117.09,252.39 112.86,-515.49 439.27,-431.25 366.97,-875.99 0,0 251.98,202.95 356.66,467.6 42.26,106.97 21.89,436.68 43.29,529.47 19.4,-86.73 95.69,-60.78 118.39,-251.15 55.5,34.85 68.8,365.3 -108,611.65 -67.54,94.12 -133.38,147.19 -214.53,172.59 -14.69,216.35 -196.12,783.05 -324.86,992.79 -206.77,336.97 -596.64,728.78 -644.88,776.76 -190.74,452.63 -500.55,842.78 -890.11,1131.37 127.9,105.7 205.67,245.1 205.67,397.91 0,151.57 -76.5,289.93 -202.48,395.3 H 3124.46 c -89.94,-75.22 -154.64,-167.26 -184.32,-268.91 -72.56,5.81 -145.89,8.87 -219.94,8.87 -70.47,0 -140.31,-2.68 -209.43,-7.94 -29.79,101.29 -94.37,192.99 -184.03,267.98 H 1110.17 c -125.99,-105.37 -202.48,-243.73 -202.48,-395.3 0,-150.8 75.73,-288.54 200.63,-393.73 C 436.16,5745.94 0,4948.96 0,4050 0,3185.74 403.15,2415.72 1031.53,1917.42 690.08,1890.05 326.18,1759.76 218.06,1487.5 302.64,1338.76 610.14,1233.81 810.78,1180.22 731.68,780.02 588.66,175.66 1001.23,1.99 c 209.56,-32.02 355.96,331.52 399.28,476.77 171.26,-18.19 1212.09,-996.82 2805.65,2.68 154.37,-204.66 172.68,-452.48 441.61,-479.91 417.4,175.43 262.73,782.48 192.06,1178.31 197.19,46.85 506.99,163.1 590.95,307.66 -47.57,115.91 -222.43,263.53 -379.59,335 -189.19,85.84 -400.16,106.68 -628.26,100.63 21.78,128.71 118.66,298.21 219.09,495.12 -98.67,-193.56 -193.9,-360.65 -217.79,-488.53 z m 1007.66,2336.39 c -5.79,73.68 -14.61,146.51 -26.16,218.42 l -16.46,245.54 c 69,-78.4 135.51,-158.5 197.64,-238.37 58.93,-75.75 116.01,-154.42 166.23,-236.26 111.39,-181.51 290.09,-717.56 304.45,-928.85 l 6.51,-95.82 91.65,-28.68 c 62.1,-19.44 105.54,-69.12 142.39,-120.45 6.16,-8.59 12.08,-17.38 17.76,-26.35 l -50.91,-220.71 c -19.27,-83.56 -15.15,-209.59 -17.63,-297.42 -1.29,-45.55 -3.62,-172.03 -19.41,-211.98 -25.23,-63.8 -65.85,-132.15 -113.83,-197.04 -12.09,29.31 -27.34,58.21 -46.19,86.74 -49.39,74.75 -115.18,134.91 -168.69,206.21 -66.47,88.61 -103.51,182.93 -127.15,290.88 l -44.37,202.68 -65.15,-44.22 c 29.24,132.04 87.71,251.03 187.83,304.46 l 100.3,53.52 -31.49,109.25 c -101.84,353.47 -255.65,650.07 -487.32,928.45 z M 1207.31,1922.56 c 5.88,-0.13 11.73,-0.29 17.59,-0.5 -5.85,0.21 -11.7,0.37 -17.59,0.5 z m -47.62,202.75 -0.18,0.41 c -559.43,454.25 -917,1147.47 -917,1924.28 0,856.7 434.8,1611.83 1095.76,2056.75 113.39,-44.49 242.8,-69.73 380.21,-69.73 394.02,0 722.32,207.3 795.48,482.06 68.03,5.61 136.78,8.61 206.25,8.61 73.24,0 145.68,-3.37 217.3,-9.59 73.68,-274.27 401.67,-481.08 795.23,-481.08 134.68,0 261.68,24.24 373.43,67.09 658.74,-445.26 1091.77,-1199.13 1091.77,-2054.11 0,-540.13 -172.9,-1039.8 -466.27,-1446.9 l -0.11,-0.24 c 168.7,372.48 282.19,817.12 -46.36,1261.94 -689.62,933.7 -2989.05,976.79 -3717.62,-4.33 C 458.22,3174.62 963.7,2570.59 1159.7,2125.31 Z m 1236.89,-661.68 c 10.3,0 20.45,1.61 30.3,4.6 -30.3,27.73 -49.72,69.98 -49.72,117.25 0,83.5 60.44,151.3 135.1,151.3 27.77,0 53.54,-9.46 75.03,-25.62 15.09,62.47 23.75,133.37 23.75,208.48 0,251.85 -96.03,455.97 -214.46,455.97 -118.32,0 -214.35,-204.12 -214.35,-455.97 0,-251.88 96.03,-456.01 214.35,-456.01 z M 1035.71,180.11 c 207.65,184.51 162.26,419.23 483.28,617.95 147.44,91.24 234.65,81.82 234.5,311.03 -0.46,437.2 -539.78,522.47 -791.97,-63.39 C 854.69,797.53 841.13,337.57 1035.71,180.11 Z m 3577.59,-0.16 c 205.57,166.55 176.2,646.84 63.5,889.69 -271.92,585.78 -809.63,449.84 -781.05,8.85 15.01,-232.24 118.74,-198 258.78,-290.19 263.72,-173.41 263.95,-428.24 458.77,-608.35 z m -352.06,1827.52 c 76.61,370.83 365.54,569.97 420.74,993.34 -283.19,-149.84 -424.8,-266.75 -809.48,-359.44 -1060.49,-255.83 -2006.71,-60.71 -2905.09,382.46 14.48,-252.08 168.96,-500.97 278.08,-673.23 136.98,-216.38 123.23,-503.5 237.37,-704.56 204.36,-73.28 289.24,-99.36 377.83,-263.92 110.43,-205.65 34.9,-292.33 50.49,-499.4 -67.84,-78.07 -432.22,-165.06 -375.19,-297.36 611.37,-421.23 1299.5,-456.05 1896.39,-290.3 269.2,68.45 718.63,310.26 698.48,334.54 -143.14,7.24 -270.77,140.27 -347.73,259.67 -26.39,24.89 -162.25,673.04 416.18,696.29 60.59,107.9 53.32,193.24 61.93,421.91 z M 898.09,1320.15 c 88.59,72.35 98.9,114.45 217.45,191.25 106.98,69.29 162.29,60.75 152.98,220.82 -136.43,33.37 -310.26,25.97 -460.87,-15.66 L 525,1581.3 c -47.3,-38.03 -25.43,-17.85 -59.63,-59.41 z m 3518.78,426.4 c 96.45,-197.88 522.01,-238.67 765.55,-236.57 -147.32,225.65 -519.1,253.8 -765.55,236.57 z m -1671.51,962.42 c 561.81,-7.54 1457.24,65.73 1882.42,485.28 288.39,284.64 -309.65,1246.72 -1872.69,1214.69 -404.87,-8.31 -988.13,-115.37 -1306.7,-341.9 -281.96,-200.36 -484.47,-410.46 -504.81,-790.74 436.63,-351.52 1238.79,-559.78 1801.78,-567.33 z"
           class="fil4"
           inkscape:connector-curvature="0"
           style="fill:#000000" />
        <path
           id="path923"
           d="m 1193.21,6823.39 c 143.91,0 332.21,0 476.12,0 52.4,0 18.69,-283.03 69.71,-282.45 41.45,0.46 34.09,285.25 82.28,282.45 111,-6.47 311.14,0 422.38,0 46.31,-52.55 78.67,-116.48 78.67,-188.46 0,-270.88 -385.41,-391.08 -603.9,-391.08 -218.48,0 -603.94,120.2 -603.94,391.08 0,71.98 32.37,135.91 78.68,188.46 z"
           class="fil5"
           inkscape:connector-curvature="0"
           style="fill:#ff0000" />
        <path
           id="path925"
           d="m 4257.98,6823.39 c -143.91,0 -332.21,0 -476.12,0 -52.4,0 -18.69,-283.03 -69.71,-282.45 -41.45,0.46 -34.09,285.25 -82.28,282.45 -111.01,-6.47 -311.14,0 -422.38,0 -46.31,-52.55 -78.68,-116.48 -78.68,-188.46 0,-270.88 385.42,-391.08 603.91,-391.08 218.48,0 603.94,120.2 603.94,391.08 0,71.98 -32.37,135.91 -78.68,188.46 z"
           class="fil5"
           inkscape:connector-curvature="0"
           style="fill:#ff0000" />
        <path
           id="path927"
           mask="url(#id0-0)"
           d="m 3380.92,6322.26 c 116.95,-53.24 251.84,-78.41 351.8,-78.41 197.1,0 530.04,97.84 593.33,315.87 -143.38,54.77 -344.35,56.52 -550.17,-7.41 -163.88,-50.89 -301.64,-134.37 -394.96,-230.05 z"
           style="fill:#fefefe"
           class="fil6"
           inkscape:connector-curvature="0" />
        <path
           id="path929"
           d="m 3501.83,4000.48 c -148.02,42.34 -291.26,83.23 -436.89,124.87 136.51,-136.19 255.34,-309.31 436.89,-421.35 114.12,-59.51 198.54,-52.47 248.99,-23.03 186.65,109.27 -155.95,290.95 -248.99,319.51 z"
           class="fil1 str0"
           inkscape:connector-curvature="0"
           style="fill:#ff0000;stroke:#2e2e2d;stroke-width:7.61999989;stroke-miterlimit:22.92560005" />
        <path
           id="path931"
           d="m 4261.23,2007.47 c -545.14,-88.75 -567.32,-131.99 -773.51,-563.56 -205.08,-429.12 -895.15,-94.2 -710,-581.11 50.49,-167.91 270.73,-353.82 413.84,-361.06 20.18,-24.32 285.13,7.28 240.81,-206.68 269.2,68.45 718.63,310.26 698.48,334.54 -143.14,7.24 -270.77,140.27 -347.73,259.67 -26.39,24.89 -162.25,673.04 416.18,696.29 60.59,107.9 53.32,193.24 61.93,421.91 z"
           class="fil7"
           inkscape:connector-curvature="0"
           style="fill:#009ee0" />
        <path
           id="path933"
           d="m 5488.56,4195.62 c -13.22,70.67 -12.02,137.75 2.04,184.87 29.22,97.98 89.03,43.35 148,-3.55 84.89,-67.53 52.19,-166.36 112.51,-257.31 42.42,-119.3 185.8,-167.83 128.33,-316.32 114.95,-167.67 59.38,-267.49 -8.03,-315.02 -90.56,260.33 -214.22,490.21 -382.85,707.33 z"
           class="fil2"
           inkscape:connector-curvature="0"
           style="fill:#009ee0" />
        <path
           id="path935"
           mask="url(#id2-2)"
           d="m 1370.72,6321.95 c 116.95,-53.24 251.84,-78.41 351.8,-78.41 197.1,0 530.04,97.84 593.33,315.87 -143.38,54.77 -344.35,56.52 -550.17,-7.41 -163.88,-50.89 -301.64,-134.37 -394.96,-230.05 z"
           style="fill:#fefefe"
           class="fil6"
           inkscape:connector-curvature="0" />
      </g>
    </g>
  </g>
</svg>
